[
    {
        "model": "sounds.User",
        "pk": 1,
        "fields":{
            "username": "public"
        }
    },
    {
        "model": "sounds.Trigger",
        "pk": 1,
        "fields":{
            "trigger": "OP"
        }
    },
    {
        "model": "sounds.Trigger",
        "pk": 2,
        "fields":{
            "trigger": "mom"
        }
    },
    {
        "model": "sounds.Trigger",
        "pk": 3,
        "fields":{
            "trigger": "Tons of damage"
        }
    },
    {
        "model": "sounds.Trigger",
        "pk": 4,
        "fields":{
            "trigger": "pentakill"
        }
    },
    {
        "model": "sounds.Sound",
        "pk": 1,
        "fields":{
            "user": 1,
            "url": "path/to/OPsound",
            "name": "OP",
            "description": "I'm OP? Your mom's OP!",
            "triggers": [1,2]
        }
    },
    {
        "model": "sounds.Sound",
        "pk": 2,
        "fields":{
            "user": 1,
            "url": "path/to/tons/of/damge/sound",
            "name": "damge",
            "description": "TONS OF DAMAGE!!!",
            "triggers": [3]
        }
    },
    {
        "model": "sounds.Sound",
        "pk": 3,
        "fields":{
            "user": 1,
            "url": "path/to/pentakillsound",
            "name": "pentaKILL",
            "description": "pentakill, PentaKILL!, PENTAKILL!!!",
            "triggers": [4]
        }
    }
]